eBird Status and Trends Japan Workshop
…
Each row of this data frame gives the average weekly relative abundance for one of the prefectures. Before we can plot these results, we need to transform them so that the relative abundance estimates are in columns rather than rows.

chronology <- pivot_longer(
  chronology,
  cols = starts_with("X"),
  names_to = "week", values_to = "abd",
  names_transform = \(x) as.Date(x, format = "X%Y.%m.%d")
)
print(chronology)

# A tibble: 104 × 3
   prefecture week         abd
   <chr>      <date>     <dbl>
 1 Fukuoka    2023-01-04 0.241
 2 Fukuoka    2023-01-11 0.458
 3 Fukuoka    2023-01-18 0.549
 4 Fukuoka    2023-01-25 0.403
 5 Fukuoka    2023-02-01 0.311
 6 Fukuoka    2023-02-08 0.273
 7 Fukuoka    2023-02-15 0.348
 8 Fukuoka    2023-02-22 0.406
 9 Fukuoka    2023-03-01 0.331
10 Fukuoka    2023-03-08 0.345
# ℹ 94 more rows
…
