eBird Trends Data Products • ebirdst
…
The tabular trend data can be converted into point vector features
for use with the sf package using the sf
function st_as_sf().

trends_sf <- st_as_sf(trends_sagthr, 
                      coords = c("longitude", "latitude"), 
                      crs = 4326)
print(trends_sf)
#> Simple feature collection with 2462 features and 15 fields
#> Geometry type: POINT
#> Dimension:     XY
#> Bounding box:  xmin: -122.1784 ymin: 33.5256 xmax: -102.975 ymax: 49.35282
#> Geodetic CRS:  WGS 84
#> # A tibble: 2,462 × 16
#>    species_code season   start_year end_year start_date end_date srd_id      abd
#>  * <chr>        <chr>         <int>    <int> <chr>      <chr>     <int>    <dbl>
#>  1 sagthr       breeding       2012     2022 05-17      07-12    254264 0.000527
#>  2 sagthr       breeding       2012     2022 05-17      07-12    255764 0.0147  
#>  3 sagthr       breeding       2012     2022 05-17      07-12    255765 0.000214
#>  4 sagthr       breeding       2012     2022 05-17      07-12    257264 0.00174 
#>  5 sagthr       breeding       2012     2022 05-17      07-12    257265 0.0132  
#>  6 sagthr       breeding       2012     2022 05-17      07-12    257266 0.00118 
#>  7 sagthr       breeding       2012     2022 05-17      07-12    258765 0.00335 
#>  8 sagthr       breeding       2012     2022 05-17      07-12    258766 0.0191  
#>  9 sagthr       breeding       2012     2022 05-17      07-12    258767 0.00511 
#> 10 sagthr       breeding       2012     2022 05-17      07-12    260264 0.000104
#> # ℹ 2,452 more rows
#> # ℹ 8 more variables: abd_ppy <dbl>, abd_ppy_lower <dbl>, abd_ppy_upper <dbl>,
#> #   abd_ppy_nonzero <lgl>, abd_trend <dbl>, abd_trend_lower <dbl>,
#> #   abd_trend_upper <dbl>, geometry <POINT [°]>
…
The model used to estimate trends produces an ensemble of 100
estimates at each location, each based on a random subsample of eBird
data. This ensemble of estimates is used to quantify uncertainty in the
trends estimates. The estimated trend is the median across the ensemble,
and the 80% confidence intervals are the lower 10th and upper 90th
percentiles across the ensemble. Those wishing to access estimates from
the individual folds making up the ensemble can use
fold_estimates = TRUE when loading data. These fold-level
estimates can be used to quantify uncertainty, for example, when
calculating the trend for a given region. For example, let’s load the
fold-level estimates for Sage Thrasher:

trends_sagthr_folds <- load_trends("sagthr", fold_estimates = TRUE)
print(trends_sagthr_folds)
#> # A tibble: 246,200 × 8
#>    species_code season    fold srd_id latitude longitude      abd abd_ppy
#>    <chr>        <chr>    <dbl>  <int>    <dbl>     <dbl>    <dbl>   <dbl>
#>  1 sagthr       breeding     1 254264     49.4     -120. 0.000527  -3.11 
#>  2 sagthr       breeding     1 255764     49.1     -120. 0.0147    -2.97 
#>  3 sagthr       breeding     1 255765     49.1     -119. 0.000214  -2.25 
#>  4 sagthr       breeding     1 257264     48.9     -120. 0.00174   -4.53 
#>  5 sagthr       breeding     1 257265     48.9     -120. 0.0132    -3.86 
#>  6 sagthr       breeding     1 257266     48.9     -119. 0.00118   -4.04 
#>  7 sagthr       breeding     1 258765     48.6     -120. 0.00335   -3.08 
#>  8 sagthr       breeding     1 258766     48.6     -119. 0.0191    -0.459
#>  9 sagthr       breeding     1 258767     48.6     -119. 0.00511   -6.40 
#> 10 sagthr       breeding     1 260264     48.4     -120. 0.000104  -2.71 
#> # ℹ 246,190 more rows
…
ebirdst_download_trends(sagebrush_species)

Now we can load the trends and calculate the cell-wise mean.

trends_sagebrush_species <- load_trends(sagebrush_species)

# calculate mean trend for each cell
trends_sagebrush <- trends_sagebrush_species %>% 
  group_by(srd_id, latitude, longitude) %>% 
  summarize(n_species = n(),
            abd_ppy = mean(abd_ppy, na.rm = TRUE),
            .groups = "drop")
print(trends_sagebrush)
#> # A tibble: 3,265 × 5
#>    srd_id latitude longitude n_species abd_ppy
#>     <int>    <dbl>     <dbl>     <int>   <dbl>
#>  1 234764     52.5     -118.         1  -8.61 
#>  2 234765     52.5     -117.         1  -7.91 
#>  3 234766     52.5     -117.         1  -6.30 
#>  4 236265     52.2     -118.         1  -0.521
#>  5 236266     52.2     -117.         1  -6.90 
#>  6 236267     52.2     -117.         1  -6.56 
#>  7 236268     52.2     -116.         1  -5.27 
#>  8 237765     52.0     -118.         1  -5.89 
#>  9 237766     52.0     -117.         1  -5.68 
#> 10 237767     52.0     -117.         1  -9.76 
#> # ℹ 3,255 more rows
…
