Assign points to a spacetime grid — assign_to_grid • ebirdst
…
    Examples

set.seed(1)

# generate some example points
points_xyt <- data.frame(x = runif(100), y = runif(100), t = rnorm(100))
# assign to grid
cells <- assign_to_grid(points_xyt, res = c(0.1, 0.1, 0.5))

# assign a second set of points to the same grid
assign_to_grid(points_xyt, grid_definition = attr(cells, "grid_definition"))
#> # A tibble: 100 × 2
#>    cell_xy cell_xyt
#>    <chr>   <chr>   
#>  1 4-7     4-7-4   
#>  2 5-4     5-4-5   
#>  3 7-3     7-3-3   
#>  4 10-10   10-10-6 
#>  5 3-7     3-7-4   
#>  6 10-3    10-3-9  
#>  7 10-2    10-2-7  
#>  8 8-5     8-5-7   
#>  9 7-10    7-10-6  
#> 10 2-7     2-7-9   
#> # ℹ 90 more rows

# assign lon-lat points to a 10km space-only grid
points_ll <- data.frame(longitude = runif(100, min = -180, max = 180),
                        latitude = runif(100, min = -90, max = 90))
assign_to_grid(points_ll, res = c(10000, 10000), is_lonlat = TRUE)
#> # A tibble: 100 × 1
#>    cell_xy  
#>    <chr>    
#>  1 3380-1311
#>  2 3761-930 
#>  3 2076-1924
#>  4 1495-791 
#>  5 2504-1683
#>  6 632-1497 
#>  7 3745-1050
#>  8 2754-1733
#>  9 1422-920 
#> 10 2015-1   
#> # ℹ 90 more rows

# overwrite default coordinate names, 5km by 1 week grid
points_names <- data.frame(lon = runif(100, min = -180, max = 180),
                           lat = runif(100, min = -90, max = 90),
                           day = sample.int(365, size = 100))
assign_to_grid(points_names,
               res = c(5000, 5000, 7),
               coords = c("lon", "lat", "day"),
               is_lonlat = TRUE)
#> # A tibble: 100 × 2
#>    cell_xy   cell_xyt    
#>    <chr>     <chr>       
#>  1 4748-277  4748-277-49 
#>  2 2715-1678 2715-1678-40
#>  3 3032-2105 3032-2105-16
#>  4 4527-3753 4527-3753-26
#>  5 1397-2828 1397-2828-5 
#>  6 6535-2878 6535-2878-19
#>  7 2650-1864 2650-1864-41
#>  8 3976-466  3976-466-51 
#>  9 4074-3112 4074-3112-9 
#> 10 5566-1736 5566-1736-33
#> # ℹ 90 more rows
…
