…
## Examples

``` r
set.seed(1)

# generate some example points
points_xyt <- data.frame(x = runif(100), y = runif(100), t = rnorm(100))
# assign to grid
cells <- assign_to_grid(points_xyt, res = c(0.1, 0.1, 0.5))

# assign a second set of points to the same grid
assign_to_grid(points_xyt, grid_definition = attr(cells, "grid_definition"))
#> # A tibble: 100 × 2
#>    cell_xy cell_xyt
#>    <chr>   <chr>   
#>  1 4-7     4-7-4   
#>  2 5-4     5-4-5   
#>  3 7-3     7-3-3   
#>  4 10-10   10-10-6 
#>  5 3-7     3-7-4   
#>  6 10-3    10-3-9  
#>  7 10-2    10-2-7  
#>  8 8-5     8-5-7   
#>  9 7-10    7-10-6  
#> 10 2-7     2-7-9   
#> # ℹ 90 more rows

# assign lon-lat points to a 10km space-only grid
points_ll <- data.frame(longitude = runif(100, min = -180, max = 180),
                        latitude = runif(100, min = -90, max = 90))
assign_to_grid(points_ll, res = c(10000, 10000), is_lonlat = TRUE)
#> # A tibble: 100 × 1
#>    cell_xy  
#>    <chr>    
#>  1 2960-1224
#>  2 3184-781 
#>  3 2110-1687
#>  4 1254-617 
#>  5 2407-1571
#>  6 244-1415 
#>  7 3172-924 
#>  8 2894-1604
#>  9 1203-769 
#> 10 2118-1   
#> # ℹ 90 more rows

# overwrite default coordinate names, 5km by 1 week grid
points_names <- data.frame(lon = runif(100, min = -180, max = 180),
                           lat = runif(100, min = -90, max = 90),
                           day = sample.int(365, size = 100))
assign_to_grid(points_names,
               res = c(5000, 5000, 7),
               coords = c("lon", "lat", "day"),
               is_lonlat = TRUE)
#> # A tibble: 100 × 2
#>    cell_xy   cell_xyt    
#>    <chr>     <chr>       
#>  1 5348-68   5348-68-49  
#>  2 2294-1332 2294-1332-40
#>  3 2577-1839 2577-1839-16
#>  4 5159-3343 5159-3343-26
#>  5 867-2655  867-2655-5  
#>  6 5944-2704 5944-2704-19
#>  7 2254-1551 2254-1551-41
#>  8 3453-166  3453-166-51 
#>  9 3515-2926 3515-2926-9 
#> 10 4736-1401 4736-1401-33
#> # ℹ 90 more rows
```
